

================================================================
== Vivado HLS Report for 'cordiccc'
================================================================
* Date:           Tue Jul  7 09:39:45 2020

* Version:        2019.1 (Build 2552052 on Fri May 24 15:28:33 MDT 2019)
* Project:        hls_cordic
* Solution:       solution1
* Product family: zynq
* Target device:  xc7z007s-clg225-1


================================================================
== Performance Estimates
================================================================
+ Timing (ns): 
    * Summary: 
    +--------+-------+----------+------------+
    |  Clock | Target| Estimated| Uncertainty|
    +--------+-------+----------+------------+
    |ap_clk  |  10.00|     7.913|        1.25|
    +--------+-------+----------+------------+

+ Latency (clock cycles): 
    * Summary: 
    +-----+-----+-----+-----+---------+
    |  Latency  |  Interval | Pipeline|
    | min | max | min | max |   Type  |
    +-----+-----+-----+-----+---------+
    |    0|  138|    0|  138|   none  |
    +-----+-----+-----+-----+---------+

    + Detail: 
        * Instance: 
        +---------------------------+-----------------+-----+-----+-----+-----+---------+
        |                           |                 |  Latency  |  Interval | Pipeline|
        |          Instance         |      Module     | min | max | min | max |   Type  |
        +---------------------------+-----------------+-----+-----+-----+-----+---------+
        |grp_cordiccc_doWork_fu_72  |cordiccc_doWork  |  137|  137|  137|  137|   none  |
        +---------------------------+-----------------+-----+-----+-----+-----+---------+

        * Loop: 
        N/A



================================================================
== Utilization Estimates
================================================================
* Summary: 
+-----------------+---------+-------+-------+-------+-----+
|       Name      | BRAM_18K| DSP48E|   FF  |  LUT  | URAM|
+-----------------+---------+-------+-------+-------+-----+
|DSP              |        -|      -|      -|      -|    -|
|Expression       |        -|      -|      -|      -|    -|
|FIFO             |        -|      -|      -|      -|    -|
|Instance         |        0|      2|    968|   2805|    -|
|Memory           |        -|      -|      -|      -|    -|
|Multiplexer      |        -|      -|      -|      -|    -|
|Register         |        -|      -|     33|      -|    -|
+-----------------+---------+-------+-------+-------+-----+
|Total            |        0|      2|   1001|   2805|    0|
+-----------------+---------+-------+-------+-------+-----+
|Available        |      100|     66|  28800|  14400|    0|
+-----------------+---------+-------+-------+-------+-----+
|Utilization (%)  |        0|      3|      3|     19|    0|
+-----------------+---------+-------+-------+-------+-----+

+ Detail: 
    * Instance: 
    +---------------------------+-----------------+---------+-------+-----+------+-----+
    |          Instance         |      Module     | BRAM_18K| DSP48E|  FF |  LUT | URAM|
    +---------------------------+-----------------+---------+-------+-----+------+-----+
    |grp_cordiccc_doWork_fu_72  |cordiccc_doWork  |        0|      2|  968|  2805|    0|
    +---------------------------+-----------------+---------+-------+-----+------+-----+
    |Total                      |                 |        0|      2|  968|  2805|    0|
    +---------------------------+-----------------+---------+-------+-----+------+-----+

    * DSP48E: 
    N/A

    * Memory: 
    N/A

    * FIFO: 
    N/A

    * Expression: 
    N/A

    * Multiplexer: 
    N/A

    * Register: 
    +------+----+----+-----+-----------+
    | Name | FF | LUT| Bits| Const Bits|
    +------+----+----+-----+-----------+
    |oRdy  |   1|   0|    1|          0|
    |oX    |  16|   0|   16|          0|
    |oY    |  16|   0|   16|          0|
    +------+----+----+-----+-----------+
    |Total |  33|   0|   33|          0|
    +------+----+----+-----+-----------+



================================================================
== Interface
================================================================
* Summary: 
+----------+-----+-----+------------+--------------------+--------------+
| RTL Ports| Dir | Bits|  Protocol  |    Source Object   |    C Type    |
+----------+-----+-----+------------+--------------------+--------------+
|clk       |  in |    1| ap_ctrl_hs | cordiccc::cordiccc | return value |
|rst       |  in |    1| ap_ctrl_hs | cordiccc::cordiccc | return value |
|iStart    |  in |    1|   ap_none  |       iStart       |    pointer   |
|oRdy      | out |    1|   ap_vld   |        oRdy        |    pointer   |
|iPhi      |  in |   22|   ap_none  |        iPhi        |    pointer   |
|oX        | out |   16|   ap_vld   |         oX         |    pointer   |
|oY        | out |   16|   ap_vld   |         oY         |    pointer   |
+----------+-----+-----+------------+--------------------+--------------+

============================================================
+ Verbose Summary: Synthesis Manager
============================================================
InlineROM: 1
ExposeGlobal: 0
============================================================
+ Verbose Summary: CDFG Model
============================================================
IsTopModel: 1
ResetActiveHigh: 1
IsCombinational: 2
IsDatapathOnly: 0
HasWiredReturn: 1
HasMFsm: 0
HasVarLatency: 1
IsPipeline: 0
IsRtlPipelined: 0
IsInstanceOverlapped: 0
IsDontTouch: 0
HasImplIP: 0
IsGatedGlobalClock: 0


============================================================
+ Verbose Summary: Schedule
============================================================
* Number of FSM states : 2
* Pipeline : 0
* Dataflow Pipeline: 0

* FSM state transitions: 
1 --> 2 
2 --> 

* FSM state operations: 

State 1 <SV = 0> <Delay = 1.76>
ST_1 : Operation 3 [1/1] (0.00ns)   --->   "call void (...)* @_ssdm_op_SpecIFCore(i16* %oY, [1 x i8]* @p_str14, [10 x i8]* @p_str16, [1 x i8]* @p_str14, i32 -1, [1 x i8]* @p_str14, [1 x i8]* @p_str14, [1 x i8]* @p_str14, [1 x i8]* @p_str14, [22 x i8]* @p_str17)"   --->   Operation 3 'specifcore' <Predicate = true> <Delay = 0.00>
ST_1 : Operation 4 [1/1] (0.00ns)   --->   "call void (...)* @_ssdm_op_SpecIFCore(i16* %oX, [1 x i8]* @p_str14, [10 x i8]* @p_str16, [1 x i8]* @p_str14, i32 -1, [1 x i8]* @p_str14, [1 x i8]* @p_str14, [1 x i8]* @p_str14, [1 x i8]* @p_str14, [22 x i8]* @p_str17)"   --->   Operation 4 'specifcore' <Predicate = true> <Delay = 0.00>
ST_1 : Operation 5 [1/1] (0.00ns)   --->   "call void (...)* @_ssdm_op_SpecIFCore(i22* %iPhi, [1 x i8]* @p_str14, [10 x i8]* @p_str16, [1 x i8]* @p_str14, i32 -1, [1 x i8]* @p_str14, [1 x i8]* @p_str14, [1 x i8]* @p_str14, [1 x i8]* @p_str14, [22 x i8]* @p_str17)"   --->   Operation 5 'specifcore' <Predicate = true> <Delay = 0.00>
ST_1 : Operation 6 [1/1] (0.00ns)   --->   "call void (...)* @_ssdm_op_SpecIFCore(i1* %oRdy, [1 x i8]* @p_str14, [10 x i8]* @p_str16, [1 x i8]* @p_str14, i32 -1, [1 x i8]* @p_str14, [1 x i8]* @p_str14, [1 x i8]* @p_str14, [1 x i8]* @p_str14, [22 x i8]* @p_str17)"   --->   Operation 6 'specifcore' <Predicate = true> <Delay = 0.00>
ST_1 : Operation 7 [1/1] (0.00ns)   --->   "call void (...)* @_ssdm_op_SpecIFCore(i1* %iStart, [1 x i8]* @p_str14, [10 x i8]* @p_str16, [1 x i8]* @p_str14, i32 -1, [1 x i8]* @p_str14, [1 x i8]* @p_str14, [1 x i8]* @p_str14, [1 x i8]* @p_str14, [22 x i8]* @p_str17)"   --->   Operation 7 'specifcore' <Predicate = true> <Delay = 0.00>
ST_1 : Operation 8 [1/1] (0.00ns)   --->   "call void (...)* @_ssdm_op_SpecBitsMap(i1* %clk), !map !193"   --->   Operation 8 'specbitsmap' <Predicate = true> <Delay = 0.00>
ST_1 : Operation 9 [1/1] (0.00ns)   --->   "call void (...)* @_ssdm_op_SpecBitsMap(i1* %rst), !map !197"   --->   Operation 9 'specbitsmap' <Predicate = true> <Delay = 0.00>
ST_1 : Operation 10 [1/1] (0.00ns)   --->   "call void (...)* @_ssdm_op_SpecBitsMap(i1* %iStart), !map !201"   --->   Operation 10 'specbitsmap' <Predicate = true> <Delay = 0.00>
ST_1 : Operation 11 [1/1] (0.00ns)   --->   "call void (...)* @_ssdm_op_SpecBitsMap(i1* %oRdy), !map !205"   --->   Operation 11 'specbitsmap' <Predicate = true> <Delay = 0.00>
ST_1 : Operation 12 [1/1] (0.00ns)   --->   "call void (...)* @_ssdm_op_SpecBitsMap(i22* %iPhi), !map !209"   --->   Operation 12 'specbitsmap' <Predicate = true> <Delay = 0.00>
ST_1 : Operation 13 [1/1] (0.00ns)   --->   "call void (...)* @_ssdm_op_SpecBitsMap(i16* %oX), !map !213"   --->   Operation 13 'specbitsmap' <Predicate = true> <Delay = 0.00>
ST_1 : Operation 14 [1/1] (0.00ns)   --->   "call void (...)* @_ssdm_op_SpecBitsMap(i16* %oY), !map !217"   --->   Operation 14 'specbitsmap' <Predicate = true> <Delay = 0.00>
ST_1 : Operation 15 [1/1] (0.00ns)   --->   "call void (...)* @_ssdm_op_SpecTopModule([9 x i8]* @p_str, [9 x i8]* @p_str) nounwind" [Cordic/cordiccc.h:19]   --->   Operation 15 'spectopmodule' <Predicate = true> <Delay = 0.00>
ST_1 : Operation 16 [1/1] (0.00ns)   --->   "%cordiccc_ssdm_thr = load i1* @cordiccc_ssdm_thread_M_doWork, align 1" [Cordic/cordiccc.h:20]   --->   Operation 16 'load' 'cordiccc_ssdm_thr' <Predicate = true> <Delay = 0.00>
ST_1 : Operation 17 [1/1] (0.00ns)   --->   "br i1 %cordiccc_ssdm_thr, label %1, label %2" [Cordic/cordiccc.h:20]   --->   Operation 17 'br' <Predicate = true> <Delay = 0.00>
ST_1 : Operation 18 [1/1] (0.00ns)   --->   "call void (...)* @_ssdm_op_SpecProcessDecl([9 x i8]* @p_str, i32 2, [7 x i8]* @p_str12) nounwind" [Cordic/cordiccc.h:20]   --->   Operation 18 'specprocessdecl' <Predicate = (!cordiccc_ssdm_thr)> <Delay = 0.00>
ST_1 : Operation 19 [1/1] (0.00ns)   --->   "call void (...)* @_ssdm_op_SpecSensitive([7 x i8]* @p_str12, [4 x i8]* @p_str3, i1* %clk, i32 1) nounwind" [Cordic/cordiccc.h:21]   --->   Operation 19 'specsensitive' <Predicate = (!cordiccc_ssdm_thr)> <Delay = 0.00>
ST_1 : Operation 20 [1/1] (0.00ns)   --->   "call void (...)* @_ssdm_op_SpecSensitive([7 x i8]* @p_str12, [4 x i8]* @p_str4, i1* %rst, i32 3) nounwind" [Cordic/cordiccc.h:22]   --->   Operation 20 'specsensitive' <Predicate = (!cordiccc_ssdm_thr)> <Delay = 0.00>
ST_1 : Operation 21 [1/1] (0.00ns)   --->   "call void (...)* @_ssdm_op_SpecPort([9 x i8]* @p_str, i32 0, [7 x i8]* @p_str2, [4 x i8]* @p_str3, i32 0, i32 0, i1* %clk) nounwind" [Cordic/cordiccc.h:23]   --->   Operation 21 'specport' <Predicate = (!cordiccc_ssdm_thr)> <Delay = 0.00>
ST_1 : Operation 22 [1/1] (0.00ns)   --->   "call void (...)* @_ssdm_op_SpecPort([9 x i8]* @p_str, i32 0, [7 x i8]* @p_str2, [4 x i8]* @p_str4, i32 0, i32 0, i1* %rst) nounwind" [Cordic/cordiccc.h:24]   --->   Operation 22 'specport' <Predicate = (!cordiccc_ssdm_thr)> <Delay = 0.00>
ST_1 : Operation 23 [1/1] (0.00ns)   --->   "call void (...)* @_ssdm_op_SpecPort([9 x i8]* @p_str, i32 0, [7 x i8]* @p_str2, [7 x i8]* @p_str5, i32 0, i32 0, i1* %iStart) nounwind" [Cordic/cordiccc.h:25]   --->   Operation 23 'specport' <Predicate = (!cordiccc_ssdm_thr)> <Delay = 0.00>
ST_1 : Operation 24 [1/1] (0.00ns)   --->   "call void (...)* @_ssdm_op_SpecPort([9 x i8]* @p_str, i32 1, [7 x i8]* @p_str2, [5 x i8]* @p_str6, i32 0, i32 0, i1* %oRdy) nounwind" [Cordic/cordiccc.h:26]   --->   Operation 24 'specport' <Predicate = (!cordiccc_ssdm_thr)> <Delay = 0.00>
ST_1 : Operation 25 [1/1] (0.00ns)   --->   "call void (...)* @_ssdm_op_SpecPort([9 x i8]* @p_str, i32 0, [19 x i8]* @p_str7, [5 x i8]* @p_str8, i32 0, i32 0, i22* %iPhi) nounwind" [Cordic/cordiccc.h:27]   --->   Operation 25 'specport' <Predicate = (!cordiccc_ssdm_thr)> <Delay = 0.00>
ST_1 : Operation 26 [1/1] (0.00ns)   --->   "call void (...)* @_ssdm_op_SpecPort([9 x i8]* @p_str, i32 1, [35 x i8]* @p_str9, [3 x i8]* @p_str10, i32 0, i32 0, i16* %oX) nounwind" [Cordic/cordiccc.h:28]   --->   Operation 26 'specport' <Predicate = (!cordiccc_ssdm_thr)> <Delay = 0.00>
ST_1 : Operation 27 [1/1] (0.00ns)   --->   "call void (...)* @_ssdm_op_SpecPort([9 x i8]* @p_str, i32 1, [35 x i8]* @p_str9, [3 x i8]* @p_str11, i32 0, i32 0, i16* %oY) nounwind" [Cordic/cordiccc.h:29]   --->   Operation 27 'specport' <Predicate = (!cordiccc_ssdm_thr)> <Delay = 0.00>
ST_1 : Operation 28 [1/1] (0.00ns)   --->   "ret void" [Cordic/cordiccc.h:22]   --->   Operation 28 'ret' <Predicate = (!cordiccc_ssdm_thr)> <Delay = 0.00>
ST_1 : Operation 29 [2/2] (1.76ns)   --->   "call void @"cordiccc::doWork"(i1* %clk, i1* %rst, i1* %iStart, i1* %oRdy, i22* %iPhi, i16* %oX, i16* %oY)" [Cordic/cordiccc.h:20]   --->   Operation 29 'call' <Predicate = (cordiccc_ssdm_thr)> <Delay = 1.76> <CoreType = "Generic">   --->   Core 0 '' <Latency = 0> <II = 1> <Delay = 1.00> <Generic> <Opcode : >

State 2 <SV = 1> <Delay = 0.00>
ST_2 : Operation 30 [1/2] (0.00ns)   --->   "call void @"cordiccc::doWork"(i1* %clk, i1* %rst, i1* %iStart, i1* %oRdy, i22* %iPhi, i16* %oX, i16* %oY)" [Cordic/cordiccc.h:20]   --->   Operation 30 'call' <Predicate = true> <Delay = 0.00> <CoreType = "Generic">   --->   Core 0 '' <Latency = 0> <II = 1> <Delay = 1.00> <Generic> <Opcode : >
ST_2 : Operation 31 [1/1] (0.00ns)   --->   "unreachable"   --->   Operation 31 'unreachable' <Predicate = true> <Delay = 0.00>


============================================================
+ Verbose Summary: Binding
============================================================
STG Binding: 
---------------- STG Properties BEGIN ----------------
- Is combinational: 0
- Is one-state seq: 0
- Is datapath-only: 0
- Is pipelined: 0
- Is top level: 1
Port [ Return ] is wired: 1; IO mode=ap_ctrl_hs:ce=0
Port [ clk]:  wired=1; compound=0; hidden=0; nouse=1; global=0; static=0; extern=0; dir=0; type=0; pingpong=0; private_global=0; IO mode=ap_none:ce=0
Port [ rst]:  wired=1; compound=0; hidden=0; nouse=1; global=0; static=0; extern=0; dir=0; type=0; pingpong=0; private_global=0; IO mode=ap_none:ce=0
Port [ iStart]:  wired=1; compound=0; hidden=0; nouse=0; global=0; static=0; extern=0; dir=0; type=0; pingpong=0; private_global=0; IO mode=ap_none:ce=0
Port [ oRdy]:  wired=1; compound=0; hidden=0; nouse=0; global=0; static=0; extern=0; dir=1; type=0; pingpong=0; private_global=0; IO mode=ap_vld:ce=0
Port [ iPhi]:  wired=1; compound=0; hidden=0; nouse=0; global=0; static=0; extern=0; dir=0; type=0; pingpong=0; private_global=0; IO mode=ap_none:ce=0
Port [ oX]:  wired=1; compound=0; hidden=0; nouse=0; global=0; static=0; extern=0; dir=1; type=0; pingpong=0; private_global=0; IO mode=ap_vld:ce=0
Port [ oY]:  wired=1; compound=0; hidden=0; nouse=0; global=0; static=0; extern=0; dir=1; type=0; pingpong=0; private_global=0; IO mode=ap_vld:ce=0
Port [ cordiccc_ssdm_thread_M_doWork]:  wired=0; compound=0; hidden=1; nouse=0; global=1; static=0; extern=1; dir=0; type=0; pingpong=0; private_global=1; linkage=0; visibility=0; IO mode=ap_none:ce=0
Port [ atanArray_V]:  wired=0; compound=1; hidden=1; nouse=1; global=1; static=1; extern=0; dir=0; type=1; pingpong=0; private_global=0; linkage=7; visibility=0; MemPort=[1]; IO mode=ap_memory:ce=0
---------------- STG Properties END ------------------

---------------- Datapath Model BEGIN ----------------

<LifeTime>
<method=bitvector/>
specifcore_ln0       (specifcore     ) [ 000]
specifcore_ln0       (specifcore     ) [ 000]
specifcore_ln0       (specifcore     ) [ 000]
specifcore_ln0       (specifcore     ) [ 000]
specifcore_ln0       (specifcore     ) [ 000]
specbitsmap_ln0      (specbitsmap    ) [ 000]
specbitsmap_ln0      (specbitsmap    ) [ 000]
specbitsmap_ln0      (specbitsmap    ) [ 000]
specbitsmap_ln0      (specbitsmap    ) [ 000]
specbitsmap_ln0      (specbitsmap    ) [ 000]
specbitsmap_ln0      (specbitsmap    ) [ 000]
specbitsmap_ln0      (specbitsmap    ) [ 000]
spectopmodule_ln19   (spectopmodule  ) [ 000]
cordiccc_ssdm_thr    (load           ) [ 010]
br_ln20              (br             ) [ 000]
specprocessdecl_ln20 (specprocessdecl) [ 000]
specsensitive_ln21   (specsensitive  ) [ 000]
specsensitive_ln22   (specsensitive  ) [ 000]
specport_ln23        (specport       ) [ 000]
specport_ln24        (specport       ) [ 000]
specport_ln25        (specport       ) [ 000]
specport_ln26        (specport       ) [ 000]
specport_ln27        (specport       ) [ 000]
specport_ln28        (specport       ) [ 000]
specport_ln29        (specport       ) [ 000]
ret_ln22             (ret            ) [ 000]
call_ln20            (call           ) [ 000]
unreachable_ln0      (unreachable    ) [ 000]
</LifeTime>

<model>

<comp_list>
<comp id="0" class="1000" name="clk">
<pin_list>
<pin id="1" dir="1" index="0" bw="1" slack="0"/>
</pin_list>
<bind>
<StgValue><ssdm name="clk"/></StgValue>
</bind>
</comp>

<comp id="2" class="1000" name="rst">
<pin_list>
<pin id="3" dir="1" index="0" bw="1" slack="0"/>
</pin_list>
<bind>
<StgValue><ssdm name="rst"/></StgValue>
</bind>
</comp>

<comp id="4" class="1000" name="iStart">
<pin_list>
<pin id="5" dir="1" index="0" bw="1" slack="0"/>
</pin_list>
<bind>
<StgValue><ssdm name="iStart"/></StgValue>
</bind>
</comp>

<comp id="6" class="1000" name="oRdy">
<pin_list>
<pin id="7" dir="1" index="0" bw="1" slack="0"/>
</pin_list>
<bind>
<StgValue><ssdm name="oRdy"/></StgValue>
</bind>
</comp>

<comp id="8" class="1000" name="iPhi">
<pin_list>
<pin id="9" dir="1" index="0" bw="1" slack="0"/>
</pin_list>
<bind>
<StgValue><ssdm name="iPhi"/></StgValue>
</bind>
</comp>

<comp id="10" class="1000" name="oX">
<pin_list>
<pin id="11" dir="1" index="0" bw="1" slack="0"/>
</pin_list>
<bind>
<StgValue><ssdm name="oX"/></StgValue>
</bind>
</comp>

<comp id="12" class="1000" name="oY">
<pin_list>
<pin id="13" dir="1" index="0" bw="1" slack="0"/>
</pin_list>
<bind>
<StgValue><ssdm name="oY"/></StgValue>
</bind>
</comp>

<comp id="14" class="1000" name="cordiccc_ssdm_thread_M_doWork">
<pin_list>
<pin id="15" dir="1" index="0" bw="1" slack="0"/>
</pin_list>
<bind>
<StgValue><ssdm name="cordiccc_ssdm_thread_M_doWork"/></StgValue>
</bind>
</comp>

<comp id="16" class="1000" name="atanArray_V">
<pin_list>
<pin id="17" dir="1" index="0" bw="1" slack="0"/>
</pin_list>
<bind>
<StgValue><ssdm name="atanArray_V"/><MemPortTyVec>1 </MemPortTyVec>
</StgValue>
</bind>
</comp>

<comp id="18" class="1001" name="const_18">
<pin_list>
<pin id="19" dir="1" index="0" bw="1" slack="2147483647"/>
</pin_list>
<bind>
<StgValue><ssdm name="_ssdm_op_SpecIFCore"/></StgValue>
</bind>
</comp>

<comp id="20" class="1001" name="const_20">
<pin_list>
<pin id="21" dir="1" index="0" bw="1" slack="2147483647"/>
</pin_list>
<bind>
<StgValue><ssdm name="p_str14"/></StgValue>
</bind>
</comp>

<comp id="22" class="1001" name="const_22">
<pin_list>
<pin id="23" dir="1" index="0" bw="1" slack="2147483647"/>
</pin_list>
<bind>
<StgValue><ssdm name="p_str16"/></StgValue>
</bind>
</comp>

<comp id="24" class="1001" name="const_24">
<pin_list>
<pin id="25" dir="1" index="0" bw="1" slack="2147483647"/>
</pin_list>
<bind>
<StgValue><ssdm name=""/></StgValue>
</bind>
</comp>

<comp id="26" class="1001" name="const_26">
<pin_list>
<pin id="27" dir="1" index="0" bw="1" slack="2147483647"/>
</pin_list>
<bind>
<StgValue><ssdm name="p_str17"/></StgValue>
</bind>
</comp>

<comp id="28" class="1001" name="const_28">
<pin_list>
<pin id="29" dir="1" index="0" bw="1" slack="2147483647"/>
</pin_list>
<bind>
<StgValue><ssdm name="_ssdm_op_SpecBitsMap"/></StgValue>
</bind>
</comp>

<comp id="30" class="1001" name="const_30">
<pin_list>
<pin id="31" dir="1" index="0" bw="1" slack="2147483647"/>
</pin_list>
<bind>
<StgValue><ssdm name="_ssdm_op_SpecTopModule"/></StgValue>
</bind>
</comp>

<comp id="32" class="1001" name="const_32">
<pin_list>
<pin id="33" dir="1" index="0" bw="1" slack="2147483647"/>
</pin_list>
<bind>
<StgValue><ssdm name="p_str"/></StgValue>
</bind>
</comp>

<comp id="34" class="1001" name="const_34">
<pin_list>
<pin id="35" dir="1" index="0" bw="1" slack="2147483647"/>
</pin_list>
<bind>
<StgValue><ssdm name="_ssdm_op_SpecProcessDecl"/></StgValue>
</bind>
</comp>

<comp id="36" class="1001" name="const_36">
<pin_list>
<pin id="37" dir="1" index="0" bw="1" slack="2147483647"/>
</pin_list>
<bind>
<StgValue><ssdm name=""/></StgValue>
</bind>
</comp>

<comp id="38" class="1001" name="const_38">
<pin_list>
<pin id="39" dir="1" index="0" bw="1" slack="2147483647"/>
</pin_list>
<bind>
<StgValue><ssdm name="p_str12"/></StgValue>
</bind>
</comp>

<comp id="40" class="1001" name="const_40">
<pin_list>
<pin id="41" dir="1" index="0" bw="1" slack="2147483647"/>
</pin_list>
<bind>
<StgValue><ssdm name="_ssdm_op_SpecSensitive"/></StgValue>
</bind>
</comp>

<comp id="42" class="1001" name="const_42">
<pin_list>
<pin id="43" dir="1" index="0" bw="1" slack="2147483647"/>
</pin_list>
<bind>
<StgValue><ssdm name="p_str3"/></StgValue>
</bind>
</comp>

<comp id="44" class="1001" name="const_44">
<pin_list>
<pin id="45" dir="1" index="0" bw="1" slack="2147483647"/>
</pin_list>
<bind>
<StgValue><ssdm name=""/></StgValue>
</bind>
</comp>

<comp id="46" class="1001" name="const_46">
<pin_list>
<pin id="47" dir="1" index="0" bw="1" slack="2147483647"/>
</pin_list>
<bind>
<StgValue><ssdm name="p_str4"/></StgValue>
</bind>
</comp>

<comp id="48" class="1001" name="const_48">
<pin_list>
<pin id="49" dir="1" index="0" bw="1" slack="2147483647"/>
</pin_list>
<bind>
<StgValue><ssdm name=""/></StgValue>
</bind>
</comp>

<comp id="50" class="1001" name="const_50">
<pin_list>
<pin id="51" dir="1" index="0" bw="1" slack="2147483647"/>
</pin_list>
<bind>
<StgValue><ssdm name="_ssdm_op_SpecPort"/></StgValue>
</bind>
</comp>

<comp id="52" class="1001" name="const_52">
<pin_list>
<pin id="53" dir="1" index="0" bw="1" slack="2147483647"/>
</pin_list>
<bind>
<StgValue><ssdm name=""/></StgValue>
</bind>
</comp>

<comp id="54" class="1001" name="const_54">
<pin_list>
<pin id="55" dir="1" index="0" bw="1" slack="2147483647"/>
</pin_list>
<bind>
<StgValue><ssdm name="p_str2"/></StgValue>
</bind>
</comp>

<comp id="56" class="1001" name="const_56">
<pin_list>
<pin id="57" dir="1" index="0" bw="1" slack="2147483647"/>
</pin_list>
<bind>
<StgValue><ssdm name="p_str5"/></StgValue>
</bind>
</comp>

<comp id="58" class="1001" name="const_58">
<pin_list>
<pin id="59" dir="1" index="0" bw="1" slack="2147483647"/>
</pin_list>
<bind>
<StgValue><ssdm name="p_str6"/></StgValue>
</bind>
</comp>

<comp id="60" class="1001" name="const_60">
<pin_list>
<pin id="61" dir="1" index="0" bw="1" slack="2147483647"/>
</pin_list>
<bind>
<StgValue><ssdm name="p_str7"/></StgValue>
</bind>
</comp>

<comp id="62" class="1001" name="const_62">
<pin_list>
<pin id="63" dir="1" index="0" bw="1" slack="2147483647"/>
</pin_list>
<bind>
<StgValue><ssdm name="p_str8"/></StgValue>
</bind>
</comp>

<comp id="64" class="1001" name="const_64">
<pin_list>
<pin id="65" dir="1" index="0" bw="1" slack="2147483647"/>
</pin_list>
<bind>
<StgValue><ssdm name="p_str9"/></StgValue>
</bind>
</comp>

<comp id="66" class="1001" name="const_66">
<pin_list>
<pin id="67" dir="1" index="0" bw="1" slack="2147483647"/>
</pin_list>
<bind>
<StgValue><ssdm name="p_str10"/></StgValue>
</bind>
</comp>

<comp id="68" class="1001" name="const_68">
<pin_list>
<pin id="69" dir="1" index="0" bw="1" slack="2147483647"/>
</pin_list>
<bind>
<StgValue><ssdm name="p_str11"/></StgValue>
</bind>
</comp>

<comp id="70" class="1001" name="const_70">
<pin_list>
<pin id="71" dir="1" index="0" bw="1" slack="0"/>
</pin_list>
<bind>
<StgValue><ssdm name="cordiccc::doWork"/></StgValue>
</bind>
</comp>

<comp id="72" class="1004" name="grp_cordiccc_doWork_fu_72">
<pin_list>
<pin id="73" dir="0" index="0" bw="0" slack="0"/>
<pin id="74" dir="0" index="1" bw="1" slack="0"/>
<pin id="75" dir="0" index="2" bw="1" slack="0"/>
<pin id="76" dir="0" index="3" bw="1" slack="0"/>
<pin id="77" dir="0" index="4" bw="1" slack="0"/>
<pin id="78" dir="0" index="5" bw="22" slack="0"/>
<pin id="79" dir="0" index="6" bw="16" slack="0"/>
<pin id="80" dir="0" index="7" bw="16" slack="0"/>
<pin id="81" dir="0" index="8" bw="22" slack="0"/>
<pin id="82" dir="1" index="9" bw="0" slack="2147483647"/>
</pin_list>
<bind>
<opcode="call(48) " fcode="call"/>
<opset="call_ln20/1 "/>
</bind>
</comp>

<comp id="92" class="1004" name="cordiccc_ssdm_thr_load_fu_92">
<pin_list>
<pin id="93" dir="0" index="0" bw="1" slack="0"/>
<pin id="94" dir="1" index="1" bw="1" slack="2147483647"/>
</pin_list>
<bind>
<opcode="load(27) " fcode="load"/>
<opset="cordiccc_ssdm_thr/1 "/>
</bind>
</comp>

</comp_list>

<net_list>
<net id="83"><net_src comp="70" pin="0"/><net_sink comp="72" pin=0"/></net>

<net id="84"><net_src comp="0" pin="0"/><net_sink comp="72" pin=1"/></net>

<net id="85"><net_src comp="2" pin="0"/><net_sink comp="72" pin=2"/></net>

<net id="86"><net_src comp="4" pin="0"/><net_sink comp="72" pin=3"/></net>

<net id="87"><net_src comp="6" pin="0"/><net_sink comp="72" pin=4"/></net>

<net id="88"><net_src comp="8" pin="0"/><net_sink comp="72" pin=5"/></net>

<net id="89"><net_src comp="10" pin="0"/><net_sink comp="72" pin=6"/></net>

<net id="90"><net_src comp="12" pin="0"/><net_sink comp="72" pin=7"/></net>

<net id="91"><net_src comp="16" pin="0"/><net_sink comp="72" pin=8"/></net>

<net id="95"><net_src comp="14" pin="0"/><net_sink comp="92" pin=0"/></net>

</net_list>

</model> 
---------------- Datapath Model END ------------------

* FSMD analyzer results:
  - Output states:
	Port: oRdy | {1 2 }
	Port: oX | {1 2 }
	Port: oY | {1 2 }
 - Input state : 
	Port: cordiccc::cordiccc : iStart | {1 2 }
	Port: cordiccc::cordiccc : iPhi | {1 2 }
	Port: cordiccc::cordiccc : cordiccc_ssdm_thread_M_doWork | {1 }
	Port: cordiccc::cordiccc : atanArray_V | {1 2 }
  - Chain level:
	State 1
		br_ln20 : 1
	State 2


============================================================
+ Verbose Summary: Datapath Resource usage 
============================================================

* Functional unit list:
|----------|---------------------------|---------|---------|---------|---------|
| Operation|      Functional Unit      |  DSP48E |  Delay  |    FF   |   LUT   |
|----------|---------------------------|---------|---------|---------|---------|
|   call   | grp_cordiccc_doWork_fu_72 |    2    |  8.845  |   1242  |   2166  |
|----------|---------------------------|---------|---------|---------|---------|
|   Total  |                           |    2    |  8.845  |   1242  |   2166  |
|----------|---------------------------|---------|---------|---------|---------|

Memories:
+-----------+--------+--------+--------+
|           |  BRAM  |   FF   |   LUT  |
+-----------+--------+--------+--------+
|atanArray_V|    0   |   22   |    6   |
+-----------+--------+--------+--------+
|   Total   |    0   |   22   |    6   |
+-----------+--------+--------+--------+

* Register list:
N/A

* Multiplexer (MUX) list: 
|--------|------|------|------|--------|
|  Comp  |  Pin | Size |  BW  | S x BW |
|--------|------|------|------|--------|
|  Total |      |      |      |    0   |
|--------|------|------|------|--------|



* Summary:
+-----------+--------+--------+--------+--------+--------+
|           |  BRAM  | DSP48E |  Delay |   FF   |   LUT  |
+-----------+--------+--------+--------+--------+--------+
|  Function |    -   |    2   |    8   |  1242  |  2166  |
|   Memory  |    0   |    -   |    -   |   22   |    6   |
|Multiplexer|    -   |    -   |    -   |    -   |    -   |
|  Register |    -   |    -   |    -   |    -   |    -   |
+-----------+--------+--------+--------+--------+--------+
|   Total   |    0   |    2   |    8   |  1264  |  2172  |
+-----------+--------+--------+--------+--------+--------+
