Design Route Status
                                               :      # nets :
   ------------------------------------------- : ----------- :
   # of logical nets.......................... :        5028 :
       # of nets not needing routing.......... :        2673 :
           # of internally routed nets........ :        2673 :
       # of routable nets..................... :        2355 :
           # of fully routed nets............. :        2355 :
       # of nets with routing errors.......... :           0 :
   ------------------------------------------- : ----------- :

