

================================================================
== Vivado HLS Report for 'CordicCC'
================================================================
* Date:           Wed Jun 10 16:03:37 2020

* Version:        2019.1 (Build 2552052 on Fri May 24 15:28:33 MDT 2019)
* Project:        hls_cordic
* Solution:       solution1
* Product family: zynq
* Target device:  xc7z007s-clg225-1


================================================================
== Performance Estimates
================================================================
+ Timing (ns): 
    * Summary: 
    +--------+-------+----------+------------+
    |  Clock | Target| Estimated| Uncertainty|
    +--------+-------+----------+------------+
    |ap_clk  |  10.00|     7.913|        1.25|
    +--------+-------+----------+------------+

+ Latency (clock cycles): 
    * Summary: 
    +-----+-----+-----+-----+---------+
    |  Latency  |  Interval | Pipeline|
    | min | max | min | max |   Type  |
    +-----+-----+-----+-----+---------+
    |    0|  138|    0|  138|   none  |
    +-----+-----+-----+-----+---------+

    + Detail: 
        * Instance: 
        N/A

        * Loop: 
        N/A

============================================================
+ Verbose Summary: Synthesis Manager
============================================================
InlineROM: 1
ExposeGlobal: 0
============================================================
+ Verbose Summary: CDFG Model
============================================================
IsTopModel: 1
ResetActiveHigh: 1
IsCombinational: 0
IsDatapathOnly: 0
HasWiredReturn: 1
HasMFsm: 0
HasVarLatency: 1
IsPipeline: 0
IsRtlPipelined: 0
IsInstanceOverlapped: 0
IsDontTouch: 0
HasImplIP: 0
IsGatedGlobalClock: 0


============================================================
+ Verbose Summary: Schedule
============================================================
* Number of FSM states : 2
* Pipeline : 0
* Dataflow Pipeline: 0

* FSM state transitions: 
1 --> 2 
2 --> 

* FSM state operations: 

State 1 <SV = 0> <Delay = 1.76>
ST_1 : Operation 3 [1/1] (0.00ns)   --->   "call void (...)* @_ssdm_op_SpecIFCore(i16* %oY, [1 x i8]* @p_str14, [10 x i8]* @p_str16, [1 x i8]* @p_str14, i32 -1, [1 x i8]* @p_str14, [1 x i8]* @p_str14, [1 x i8]* @p_str14, [1 x i8]* @p_str14, [22 x i8]* @p_str17)"   --->   Operation 3 'specifcore' <Predicate = true> <Delay = 0.00>
ST_1 : Operation 4 [1/1] (0.00ns)   --->   "call void (...)* @_ssdm_op_SpecIFCore(i16* %oX, [1 x i8]* @p_str14, [10 x i8]* @p_str16, [1 x i8]* @p_str14, i32 -1, [1 x i8]* @p_str14, [1 x i8]* @p_str14, [1 x i8]* @p_str14, [1 x i8]* @p_str14, [22 x i8]* @p_str17)"   --->   Operation 4 'specifcore' <Predicate = true> <Delay = 0.00>
ST_1 : Operation 5 [1/1] (0.00ns)   --->   "call void (...)* @_ssdm_op_SpecIFCore(i22* %iPhi, [1 x i8]* @p_str14, [10 x i8]* @p_str16, [1 x i8]* @p_str14, i32 -1, [1 x i8]* @p_str14, [1 x i8]* @p_str14, [1 x i8]* @p_str14, [1 x i8]* @p_str14, [22 x i8]* @p_str17)"   --->   Operation 5 'specifcore' <Predicate = true> <Delay = 0.00>
ST_1 : Operation 6 [1/1] (0.00ns)   --->   "call void (...)* @_ssdm_op_SpecIFCore(i1* %oRdy, [1 x i8]* @p_str14, [10 x i8]* @p_str16, [1 x i8]* @p_str14, i32 -1, [1 x i8]* @p_str14, [1 x i8]* @p_str14, [1 x i8]* @p_str14, [1 x i8]* @p_str14, [22 x i8]* @p_str17)"   --->   Operation 6 'specifcore' <Predicate = true> <Delay = 0.00>
ST_1 : Operation 7 [1/1] (0.00ns)   --->   "call void (...)* @_ssdm_op_SpecIFCore(i1* %iStart, [1 x i8]* @p_str14, [10 x i8]* @p_str16, [1 x i8]* @p_str14, i32 -1, [1 x i8]* @p_str14, [1 x i8]* @p_str14, [1 x i8]* @p_str14, [1 x i8]* @p_str14, [22 x i8]* @p_str17)"   --->   Operation 7 'specifcore' <Predicate = true> <Delay = 0.00>
ST_1 : Operation 8 [1/1] (0.00ns)   --->   "call void (...)* @_ssdm_op_SpecBitsMap(i1* %clk), !map !193"   --->   Operation 8 'specbitsmap' <Predicate = true> <Delay = 0.00>
ST_1 : Operation 9 [1/1] (0.00ns)   --->   "call void (...)* @_ssdm_op_SpecBitsMap(i1* %nrst), !map !197"   --->   Operation 9 'specbitsmap' <Predicate = true> <Delay = 0.00>
ST_1 : Operation 10 [1/1] (0.00ns)   --->   "call void (...)* @_ssdm_op_SpecBitsMap(i1* %iStart), !map !201"   --->   Operation 10 'specbitsmap' <Predicate = true> <Delay = 0.00>
ST_1 : Operation 11 [1/1] (0.00ns)   --->   "call void (...)* @_ssdm_op_SpecBitsMap(i1* %oRdy), !map !205"   --->   Operation 11 'specbitsmap' <Predicate = true> <Delay = 0.00>
ST_1 : Operation 12 [1/1] (0.00ns)   --->   "call void (...)* @_ssdm_op_SpecBitsMap(i22* %iPhi), !map !209"   --->   Operation 12 'specbitsmap' <Predicate = true> <Delay = 0.00>
ST_1 : Operation 13 [1/1] (0.00ns)   --->   "call void (...)* @_ssdm_op_SpecBitsMap(i16* %oX), !map !213"   --->   Operation 13 'specbitsmap' <Predicate = true> <Delay = 0.00>
ST_1 : Operation 14 [1/1] (0.00ns)   --->   "call void (...)* @_ssdm_op_SpecBitsMap(i16* %oY), !map !217"   --->   Operation 14 'specbitsmap' <Predicate = true> <Delay = 0.00>
ST_1 : Operation 15 [1/1] (0.00ns)   --->   "call void (...)* @_ssdm_op_SpecTopModule([9 x i8]* @p_str, [9 x i8]* @p_str) nounwind" [Cordic/CordicCC.h:24]   --->   Operation 15 'spectopmodule' <Predicate = true> <Delay = 0.00>
ST_1 : Operation 16 [1/1] (0.00ns)   --->   "%CordicCC_ssdm_thr = load i1* @CordicCC_ssdm_thread_M_doWork, align 1" [Cordic/CordicCC.h:25]   --->   Operation 16 'load' 'CordicCC_ssdm_thr' <Predicate = true> <Delay = 0.00>
ST_1 : Operation 17 [1/1] (0.00ns)   --->   "br i1 %CordicCC_ssdm_thr, label %1, label %2" [Cordic/CordicCC.h:25]   --->   Operation 17 'br' <Predicate = true> <Delay = 0.00>
ST_1 : Operation 18 [1/1] (0.00ns)   --->   "call void (...)* @_ssdm_op_SpecProcessDecl([9 x i8]* @p_str, i32 2, [7 x i8]* @p_str12) nounwind" [Cordic/CordicCC.h:25]   --->   Operation 18 'specprocessdecl' <Predicate = (!CordicCC_ssdm_thr)> <Delay = 0.00>
ST_1 : Operation 19 [1/1] (0.00ns)   --->   "call void (...)* @_ssdm_op_SpecSensitive([7 x i8]* @p_str12, [4 x i8]* @p_str3, i1* %clk, i32 1) nounwind" [Cordic/CordicCC.h:26]   --->   Operation 19 'specsensitive' <Predicate = (!CordicCC_ssdm_thr)> <Delay = 0.00>
ST_1 : Operation 20 [1/1] (0.00ns)   --->   "call void (...)* @_ssdm_op_SpecSensitive([7 x i8]* @p_str12, [5 x i8]* @p_str4, i1* %nrst, i32 4) nounwind" [Cordic/CordicCC.h:27]   --->   Operation 20 'specsensitive' <Predicate = (!CordicCC_ssdm_thr)> <Delay = 0.00>
ST_1 : Operation 21 [1/1] (0.00ns)   --->   "call void (...)* @_ssdm_op_SpecPort([9 x i8]* @p_str, i32 0, [7 x i8]* @p_str2, [4 x i8]* @p_str3, i32 0, i32 0, i1* %clk) nounwind" [Cordic/CordicCC.h:28]   --->   Operation 21 'specport' <Predicate = (!CordicCC_ssdm_thr)> <Delay = 0.00>
ST_1 : Operation 22 [1/1] (0.00ns)   --->   "call void (...)* @_ssdm_op_SpecPort([9 x i8]* @p_str, i32 0, [7 x i8]* @p_str2, [5 x i8]* @p_str4, i32 0, i32 0, i1* %nrst) nounwind" [Cordic/CordicCC.h:29]   --->   Operation 22 'specport' <Predicate = (!CordicCC_ssdm_thr)> <Delay = 0.00>
ST_1 : Operation 23 [1/1] (0.00ns)   --->   "call void (...)* @_ssdm_op_SpecPort([9 x i8]* @p_str, i32 0, [7 x i8]* @p_str2, [7 x i8]* @p_str5, i32 0, i32 0, i1* %iStart) nounwind" [Cordic/CordicCC.h:30]   --->   Operation 23 'specport' <Predicate = (!CordicCC_ssdm_thr)> <Delay = 0.00>
ST_1 : Operation 24 [1/1] (0.00ns)   --->   "call void (...)* @_ssdm_op_SpecPort([9 x i8]* @p_str, i32 1, [7 x i8]* @p_str2, [5 x i8]* @p_str6, i32 0, i32 0, i1* %oRdy) nounwind" [Cordic/CordicCC.h:31]   --->   Operation 24 'specport' <Predicate = (!CordicCC_ssdm_thr)> <Delay = 0.00>
ST_1 : Operation 25 [1/1] (0.00ns)   --->   "call void (...)* @_ssdm_op_SpecPort([9 x i8]* @p_str, i32 0, [19 x i8]* @p_str7, [5 x i8]* @p_str8, i32 0, i32 0, i22* %iPhi) nounwind" [Cordic/CordicCC.h:32]   --->   Operation 25 'specport' <Predicate = (!CordicCC_ssdm_thr)> <Delay = 0.00>
ST_1 : Operation 26 [1/1] (0.00ns)   --->   "call void (...)* @_ssdm_op_SpecPort([9 x i8]* @p_str, i32 1, [35 x i8]* @p_str9, [3 x i8]* @p_str10, i32 0, i32 0, i16* %oX) nounwind" [Cordic/CordicCC.h:33]   --->   Operation 26 'specport' <Predicate = (!CordicCC_ssdm_thr)> <Delay = 0.00>
ST_1 : Operation 27 [1/1] (0.00ns)   --->   "call void (...)* @_ssdm_op_SpecPort([9 x i8]* @p_str, i32 1, [35 x i8]* @p_str9, [3 x i8]* @p_str11, i32 0, i32 0, i16* %oY) nounwind" [Cordic/CordicCC.h:34]   --->   Operation 27 'specport' <Predicate = (!CordicCC_ssdm_thr)> <Delay = 0.00>
ST_1 : Operation 28 [1/1] (0.00ns)   --->   "ret void" [Cordic/CordicCC.h:27]   --->   Operation 28 'ret' <Predicate = (!CordicCC_ssdm_thr)> <Delay = 0.00>
ST_1 : Operation 29 [2/2] (1.76ns)   --->   "call void @"CordicCC::doWork"(i1* %clk, i1* %nrst, i1* %iStart, i1* %oRdy, i22* %iPhi, i16* %oX, i16* %oY)" [Cordic/CordicCC.h:25]   --->   Operation 29 'call' <Predicate = (CordicCC_ssdm_thr)> <Delay = 1.76> <CoreType = "Generic">   --->   Core 0 '' <Latency = 0> <II = 1> <Delay = 1.00> <Generic> <Opcode : >

State 2 <SV = 1> <Delay = 0.00>
ST_2 : Operation 30 [1/2] (0.00ns)   --->   "call void @"CordicCC::doWork"(i1* %clk, i1* %nrst, i1* %iStart, i1* %oRdy, i22* %iPhi, i16* %oX, i16* %oY)" [Cordic/CordicCC.h:25]   --->   Operation 30 'call' <Predicate = true> <Delay = 0.00> <CoreType = "Generic">   --->   Core 0 '' <Latency = 0> <II = 1> <Delay = 1.00> <Generic> <Opcode : >
ST_2 : Operation 31 [1/1] (0.00ns)   --->   "unreachable"   --->   Operation 31 'unreachable' <Predicate = true> <Delay = 0.00>


============================================================
+ Verbose Summary: Timing violations
============================================================
Target clock period: 10ns, clock uncertainty: 1.25ns.

 <State 1>: 1.77ns
The critical path consists of the following:
	'call' operation ('call_ln25', Cordic/CordicCC.h:25) to 'CordicCC::doWork' [38]  (1.77 ns)

 <State 2>: 0ns
The critical path consists of the following:


============================================================
+ Verbose Summary: Binding
============================================================
N/A
* FSMD analyzer results:
  - Output states:
 - Input state : 
  - Chain level:
	State 1
	State 2


============================================================
+ Verbose Summary: Datapath Resource usage 
============================================================
N/A
